Confidence Ellipse • ConfidenceEllipse
…
The function includes a distribution argument that
allows users to choose between two statistical approaches for ellipse
calculation:

“normal” (default): Uses the chi-square distribution quantile

“hotelling”: Uses Hotelling’s T² distribution quantile

ellipse_grp <- confidence_ellipse(glass, x = SiO2, y = Na2O, .group_by = glassType)
ellipse_grph <- confidence_ellipse(glass, x = SiO2, y = Na2O, .group_by = glassType, distribution = "hotelling")

ellipse_grp %>% print()
#> # A tibble: 1,444 × 3
#>        x     y glassType
#>    <dbl> <dbl> <fct>    
#>  1  59.6  14.7 1        
#>  2  59.6  14.7 1        
#>  3  59.6  14.6 1        
#>  4  59.6  14.5 1        
#>  5  59.6  14.5 1        
#>  6  59.6  14.4 1        
#>  7  59.6  14.3 1        
#>  8  59.6  14.3 1        
#>  9  59.7  14.2 1        
#> 10  59.7  14.1 1        
#> # ℹ 1,434 more rows

ellipse_grph %>% print()
#> # A tibble: 1,444 × 3
#>        x     y glassType
#>    <dbl> <dbl> <fct>    
#>  1  59.5  14.7 1        
#>  2  59.5  14.7 1        
#>  3  59.5  14.6 1        
#>  4  59.5  14.5 1        
#>  5  59.5  14.5 1        
#>  6  59.5  14.4 1        
#>  7  59.5  14.3 1        
#>  8  59.5  14.3 1        
#>  9  59.6  14.2 1        
#> 10  59.6  14.1 1        
#> # ℹ 1,434 more rows
…
